CORDIC/cordic_tb.vcd
$date
  Tue Sep 03 16:32:40 2024
$end
$version
  GHDL v0
$end
$timescale
  1 fs
$end
$scope module standard $end
$upscope $end
$scope module std_logic_1164 $end
$upscope $end
$scope module numeric_std $end
$upscope $end
$scope module math_real $end
$upscope $end
$scope module textio $end
$upscope $end
$scope module utils $end
$upscope $end
$scope module cordic_tb $end
$var reg 1 ! clk $end
$var reg 1 " rst $end
$var reg 1 # req $end
$var reg 1 $ rot0_vec1 $end
$var reg 22 % x_in[21:0] $end
$var reg 22 & y_in[21:0] $end
$var reg 22 ' z_in[21:0] $end
$var reg 22 ( x_out[21:0] $end
$var reg 22 ) y_out[21:0] $end
$var reg 22 * z_out[21:0] $end
$var integer 32 + count $end
$scope module dut_cordic $end
$var reg 22 , x0[21:0] $end
$var reg 22 - y0[21:0] $end
$var reg 22 . z0[21:0] $end
$var reg 22 / xr[21:0] $end
$var reg 22 0 yr[21:0] $end
$var reg 22 1 zr[21:0] $end
$var reg 1 2 start $end
$var reg 1 3 clk $end
$var reg 1 4 mode $end
$var integer 32 5 i $end
$var reg 22 6 x_pre[21:0] $end
$var reg 22 7 y_pre[21:0] $end
$var reg 22 8 z_pre[21:0] $end
$var reg 22 9 x_in[21:0] $end
$var reg 22 : y_in[21:0] $end
$var reg 22 ; z_in[21:0] $end
$var reg 22 < x_act[21:0] $end
$var reg 22 = y_act[21:0] $end
$var reg 22 > z_act[21:0] $end
$var reg 22 ? x_next[21:0] $end
$var reg 22 @ y_next[21:0] $end
$var reg 22 A z_next[21:0] $end
$var reg 22 B beta[21:0] $end
$var reg 1 C count_en $end
$var integer 32 D gain $end
$scope module precordic $end
$var reg 22 E x_in[21:0] $end
$var reg 22 F y_in[21:0] $end
$var reg 22 G z_in[21:0] $end
$var reg 22 H x_out[21:0] $end
$var reg 22 I y_out[21:0] $end
$var reg 22 J z_out[21:0] $end
$var reg 1 K mode $end
$var reg 22 L x_in_2c[21:0] $end
$var reg 22 M y_in_2c[21:0] $end
$var reg 22 N z_in_inv[21:0] $end
$var reg 22 O x_rot[21:0] $end
$var reg 22 P y_rot[21:0] $end
$var reg 22 Q z_rot[21:0] $end
$var reg 22 R x_vec[21:0] $end
$var reg 22 S y_vec[21:0] $end
$var reg 22 T z_vec[21:0] $end
$upscope $end
$scope module counter $end
$var reg 1 U clk $end
$var reg 1 V ena $end
$var reg 1 W rst $end
$var integer 32 X count $end
$var integer 32 Y aux $end
$upscope $end
$scope module cordic_stage $end
$var reg 22 Z x_in[21:0] $end
$var reg 22 [ y_in[21:0] $end
$var reg 22 \ z_in[21:0] $end
$var reg 22 ] x_out[21:0] $end
$var reg 22 ^ y_out[21:0] $end
$var reg 22 _ z_out[21:0] $end
$var reg 22 ` beta[21:0] $end
$var integer 32 a shift $end
$var reg 1 b mode $end
$var reg 1 c di $end
$upscope $end
$scope module reg_x $end
$var reg 22 d di[21:0] $end
$var reg 22 e qo[21:0] $end
$var reg 1 f clk $end
$var reg 1 g rst $end
$upscope $end
$scope module reg_y $end
$var reg 22 h di[21:0] $end
$var reg 22 i qo[21:0] $end
$var reg 1 j clk $end
$var reg 1 k rst $end
$upscope $end
$scope module reg_z $end
$var reg 22 l di[21:0] $end
$var reg 22 m qo[21:0] $end
$var reg 1 n clk $end
$var reg 1 o rst $end
$upscope $end
$upscope $end
$upscope $end
$enddefinitions $end
#0
0!
0"
0#
0$
bUUUUUUUUUUUUUUUUUUUUUU %
bUUUUUUUUUUUUUUUUUUUUUU &
bUUUUUUUUUUUUUUUUUUUUUU '
bUUUUUUUUUUUUUUUUUUUUUU (
bUUUUUUUUUUUUUUUUUUUUUU )
bUUUUUUUUUUUUUUUUUUUUUU *
b0 +
bUUUUUUUUUUUUUUUUUUUUUU ,
bUUUUUUUUUUUUUUUUUUUUUU -
bUUUUUUUUUUUUUUUUUUUUUU .
bUUUUUUUUUUUUUUUUUUUUUU /
bUUUUUUUUUUUUUUUUUUUUUU 0
bUUUUUUUUUUUUUUUUUUUUUU 1
02
03
04
b0 5
bUUUUUUUUUUUUUUUUUUUUUU 6
bUUUUUUUUUUUUUUUUUUUUUU 7
bUUUUUUUUUUUUUUUUUUUUUU 8
bUUUUUUUUUUUUUUUUUUUUUU 9
bUUUUUUUUUUUUUUUUUUUUUU :
bUUUUUUUUUUUUUUUUUUUUUU ;
bUUUUUUUUUUUUUUUUUUUUUU <
bUUUUUUUUUUUUUUUUUUUUUU =
bUUUUUUUUUUUUUUUUUUUUUU >
bXXXXXXXXXXXXXXXXXXXXXX ?
bXXXXXXXXXXXXXXXXXXXXXX @
bXXXXXXXXXXXXXXXXXXXXXX A
b0000000000000000000000 B
UC
b10000000000000000000000000000000 D
bUUUUUUUUUUUUUUUUUUUUUU E
bUUUUUUUUUUUUUUUUUUUUUU F
bUUUUUUUUUUUUUUUUUUUUUU G
bUUUUUUUUUUUUUUUUUUUUUU H
bUUUUUUUUUUUUUUUUUUUUUU I
bUUUUUUUUUUUUUUUUUUUUUU J
0K
bXXXXXXXXXXXXXXXXXXXXXX L
bXXXXXXXXXXXXXXXXXXXXXX M
bUUUUUUUUUUUUUUUUUUUUUU N
bUUUUUUUUUUUUUUUUUUUUUU O
bUUUUUUUUUUUUUUUUUUUUUU P
bUUUUUUUUUUUUUUUUUUUUUU Q
bUUUUUUUUUUUUUUUUUUUUUU R
bUUUUUUUUUUUUUUUUUUUUUU S
bUUUUUUUUUUUUUUUUUUUUUU T
0U
UV
0W
b0 X
b0 Y
bUUUUUUUUUUUUUUUUUUUUUU Z
bUUUUUUUUUUUUUUUUUUUUUU [
bUUUUUUUUUUUUUUUUUUUUUU \
bXXXXXXXXXXXXXXXXXXXXXX ]
bXXXXXXXXXXXXXXXXXXXXXX ^
bXXXXXXXXXXXXXXXXXXXXXX _
b0000000000000000000000 `
b0 a
0b
Uc
bXXXXXXXXXXXXXXXXXXXXXX d
bUUUUUUUUUUUUUUUUUUUUUU e
0f
0g
bXXXXXXXXXXXXXXXXXXXXXX h
bUUUUUUUUUUUUUUUUUUUUUU i
0j
0k
bXXXXXXXXXXXXXXXXXXXXXX l
bUUUUUUUUUUUUUUUUUUUUUU m
0n
0o
#10000000000
1!
1"
b0000000001000000000000 %
b0000000000000000000000 &
b0010000000000000000000 '
bXXXXXXXXXXXXXXXXXXXXXX (
bXXXXXXXXXXXXXXXXXXXXXX )
bXXXXXXXXXXXXXXXXXXXXXX *
b1 +
b0000000001000000000000 ,
b0000000000000000000000 -
b0010000000000000000000 .
bXXXXXXXXXXXXXXXXXXXXXX /
bXXXXXXXXXXXXXXXXXXXXXX 0
bXXXXXXXXXXXXXXXXXXXXXX 1
12
13
b0000000001000000000000 6
b0000000000000000000000 7
b0010000000000000000000 8
bXXXXXXXXXXXXXXXXXXXXXX <
bXXXXXXXXXXXXXXXXXXXXXX =
bXXXXXXXXXXXXXXXXXXXXXX >
b0000000001000000000000 E
b0000000000000000000000 F
b0010000000000000000000 G
b0000000001000000000000 H
b0000000000000000000000 I
b0010000000000000000000 J
b1111111111000000000000 L
b0000000000000000000000 M
b1010000000000000000000 N
b0000000001000000000000 O
b0000000000000000000000 P
b0010000000000000000000 Q
b0000000001000000000000 R
b0000000000000000000000 S
b0010000000000000000000 T
1U
1W
bXXXXXXXXXXXXXXXXXXXXXX e
1f
1g
bXXXXXXXXXXXXXXXXXXXXXX i
1j
1k
bXXXXXXXXXXXXXXXXXXXXXX m
1n
1o
#20000000000
0!
03
b0000000001000000000000 9
b0000000000000000000000 :
b0010000000000000000000 ;
b0000000001000000000000 ?
b0000000001000000000000 @
b0010000000000000000000 A
0U
b0000000001000000000000 Z
b0000000000000000000000 [
b0010000000000000000000 \
b0000000001000000000000 ]
b0000000001000000000000 ^
b0010000000000000000000 _
0c
b0000000001000000000000 d
0f
b0000000001000000000000 h
0j
b0010000000000000000000 l
0n
#30000000000
1!
0"
b0000000000000000000000 (
b0000000000000000000000 )
b0000000000000000000000 *
b10 +
b0000000000000000000000 /
b0000000000000000000000 0
b0000000000000000000000 1
02
13
b0000000000000000000000 <
b0000000000000000000000 =
b0000000000000000000000 >
b0000000000000000000000 A
b0010000000000000000000 B
1C
1U
1V
0W
b0000000000000000000000 _
b0010000000000000000000 `
b0000000000000000000000 e
1f
0g
b0000000000000000000000 i
1j
0k
b0000000000000000000000 l
b0000000000000000000000 m
1n
0o
#40000000000
0!
03
0U
0f
0j
0n
#50000000000
1!
b0000000001000000000000 (
b0000000001000000000000 )
b11 +
b0000000001000000000000 /
b0000000001000000000000 0
13
b1 5
b0000000001000000000000 :
b0000000000000000000000 ;
b0000000001000000000000 <
b0000000001000000000000 =
b0000000000100000000000 ?
b0000000001100000000000 @
b1110110100011011111111 A
b0001001011100100000001 B
1U
b1 X
b1 Y
b0000000001000000000000 [
b0000000000000000000000 \
b0000000000100000000000 ]
b0000000001100000000000 ^
b1110110100011011111111 _
b0001001011100100000001 `
b1 a
b0000000000100000000000 d
b0000000001000000000000 e
1f
b0000000001100000000000 h
b0000000001000000000000 i
1j
b1110110100011011111111 l
1n
#60000000000
0!
03
0U
0f
0j
0n
#70000000000
1!
b0000000000100000000000 (
b0000000001100000000000 )
b1110110100011011111111 *
b100 +
b0000000000100000000000 /
b0000000001100000000000 0
b1110110100011011111111 1
13
b10 5
b0000000000100000000000 9
b0000000001100000000000 :
b1110110100011011111111 ;
b0000000000100000000000 <
b0000000001100000000000 =
b1110110100011011111111 >
b0000000000111000000000 ?
b0000000001011000000000 @
b1111011100010111001101 A
b0000100111111011001110 B
1U
b10 X
b10 Y
b0000000000100000000000 Z
b0000000001100000000000 [
b1110110100011011111111 \
b0000000000111000000000 ]
b0000000001011000000000 ^
b1111011100010111001101 _
b0000100111111011001110 `
b10 a
1c
b0000000000111000000000 d
b0000000000100000000000 e
1f
b0000000001011000000000 h
b0000000001100000000000 i
1j
b1111011100010111001101 l
b1110110100011011111111 m
1n
#80000000000
0!
03
0U
0f
0j
0n
#90000000000
1!
b0000000000111000000000 (
b0000000001011000000000 )
b1111011100010111001101 *
b101 +
b0000000000111000000000 /
b0000000001011000000000 0
b1111011100010111001101 1
13
b11 5
b0000000000111000000000 9
b0000000001011000000000 :
b1111011100010111001101 ;
b0000000000111000000000 <
b0000000001011000000000 =
b1111011100010111001101 >
b0000000001000011000000 ?
b0000000001010001000000 @
b1111110000101000010001 A
b0000010100010001000100 B
1U
b11 X
b11 Y
b0000000000111000000000 Z
b0000000001011000000000 [
b1111011100010111001101 \
b0000000001000011000000 ]
b0000000001010001000000 ^
b1111110000101000010001 _
b0000010100010001000100 `
b11 a
b0000000001000011000000 d
b0000000000111000000000 e
1f
b0000000001010001000000 h
b0000000001011000000000 i
1j
b1111110000101000010001 l
b1111011100010111001101 m
1n
#100000000000
0!
03
0U
0f
0j
0n
#110000000000
1!
b0000000001000011000000 (
b0000000001010001000000 )
b1111110000101000010001 *
b110 +
b0000000001000011000000 /
b0000000001010001000000 0
b1111110000101000010001 1
13
b100 5
b0000000001000011000000 9
b0000000001010001000000 :
b1111110000101000010001 ;
b0000000001000011000000 <
b0000000001010001000000 =
b1111110000101000010001 >
b0000000001001000000100 ?
b0000000001001100110100 @
b1111111010110011010100 A
b0000001010001011000011 B
1U
b100 X
b100 Y
b0000000001000011000000 Z
b0000000001010001000000 [
b1111110000101000010001 \
b0000000001001000000100 ]
b0000000001001100110100 ^
b1111111010110011010100 _
b0000001010001011000011 `
b100 a
b0000000001001000000100 d
b0000000001000011000000 e
1f
b0000000001001100110100 h
b0000000001010001000000 i
1j
b1111111010110011010100 l
b1111110000101000010001 m
1n
#120000000000
0!
03
0U
0f
0j
0n
#130000000000
1!
b0000000001001000000100 (
b0000000001001100110100 )
b1111111010110011010100 *
b111 +
b0000000001001000000100 /
b0000000001001100110100 0
b1111111010110011010100 1
13
b101 5
b0000000001001000000100 9
b0000000001001100110100 :
b1111111010110011010100 ;
b0000000001001000000100 <
b0000000001001100110100 =
b1111111010110011010100 >
b0000000001001010011101 ?
b0000000001001010100100 @
b1111111111111001001010 A
b0000000101000101110110 B
1U
b101 X
b101 Y
b0000000001001000000100 Z
b0000000001001100110100 [
b1111111010110011010100 \
b0000000001001010011101 ]
b0000000001001010100100 ^
b1111111111111001001010 _
b0000000101000101110110 `
b101 a
b0000000001001010011101 d
b0000000001001000000100 e
1f
b0000000001001010100100 h
b0000000001001100110100 i
1j
b1111111111111001001010 l
b1111111010110011010100 m
1n
#140000000000
0!
03
0U
0f
0j
0n
#150000000000
1!
b0000000001001010011101 (
b0000000001001010100100 )
b1111111111111001001010 *
b1000 +
b0000000001001010011101 /
b0000000001001010100100 0
b1111111111111001001010 1
13
b110 5
b0000000001001010011101 9
b0000000001001010100100 :
b1111111111111001001010 ;
b0000000001001010011101 <
b0000000001001010100100 =
b1111111111111001001010 >
b0000000001001011100111 ?
b0000000001001001011010 @
b0000000010011100001000 A
b0000000010100010111110 B
1U
b110 X
b110 Y
b0000000001001010011101 Z
b0000000001001010100100 [
b1111111111111001001010 \
b0000000001001011100111 ]
b0000000001001001011010 ^
b0000000010011100001000 _
b0000000010100010111110 `
b110 a
b0000000001001011100111 d
b0000000001001010011101 e
1f
b0000000001001001011010 h
b0000000001001010100100 i
1j
b0000000010011100001000 l
b1111111111111001001010 m
1n
#160000000000
0!
03
0U
0f
0j
0n
#170000000000
1!
b0000000001001011100111 (
b0000000001001001011010 )
b0000000010011100001000 *
b1001 +
b0000000001001011100111 /
b0000000001001001011010 0
b0000000010011100001000 1
13
b111 5
b0000000001001011100111 9
b0000000001001001011010 :
b0000000010011100001000 ;
b0000000001001011100111 <
b0000000001001001011010 =
b0000000010011100001000 >
b0000000001001011000011 ?
b0000000001001001111111 @
b0000000001001010101001 A
b0000000001010001011111 B
1U
b111 X
b111 Y
b0000000001001011100111 Z
b0000000001001001011010 [
b0000000010011100001000 \
b0000000001001011000011 ]
b0000000001001001111111 ^
b0000000001001010101001 _
b0000000001010001011111 `
b111 a
0c
b0000000001001011000011 d
b0000000001001011100111 e
1f
b0000000001001001111111 h
b0000000001001001011010 i
1j
b0000000001001010101001 l
b0000000010011100001000 m
1n
#180000000000
0!
03
0U
0f
0j
0n
#190000000000
1!
b0000000001001011000011 (
b0000000001001001111111 )
b0000000001001010101001 *
b1010 +
b0000000001001011000011 /
b0000000001001001111111 0
b0000000001001010101001 1
13
b1000 5
b0000000001001011000011 9
b0000000001001001111111 :
b0000000001001010101001 ;
b0000000001001011000011 <
b0000000001001001111111 =
b0000000001001010101001 >
b0000000001001010110001 ?
b0000000001001010010001 @
b0000000000100001111001 A
b0000000000101000110000 B
1U
b1000 X
b1000 Y
b0000000001001011000011 Z
b0000000001001001111111 [
b0000000001001010101001 \
b0000000001001010110001 ]
b0000000001001010010001 ^
b0000000000100001111001 _
b0000000000101000110000 `
b1000 a
b0000000001001010110001 d
b0000000001001011000011 e
1f
b0000000001001010010001 h
b0000000001001001111111 i
1j
b0000000000100001111001 l
b0000000001001010101001 m
1n
#200000000000
0!
03
0U
0f
0j
0n
#210000000000
1!
b0000000001001010110001 (
b0000000001001010010001 )
b0000000000100001111001 *
b1011 +
b0000000001001010110001 /
b0000000001001010010001 0
b0000000000100001111001 1
13
b1001 5
b0000000001001010110001 9
b0000000001001010010001 :
b0000000000100001111001 ;
b0000000001001010110001 <
b0000000001001010010001 =
b0000000000100001111001 >
b0000000001001010101000 ?
b0000000001001010011010 @
b0000000000001101100001 A
b0000000000010100011000 B
1U
b1001 X
b1001 Y
b0000000001001010110001 Z
b0000000001001010010001 [
b0000000000100001111001 \
b0000000001001010101000 ]
b0000000001001010011010 ^
b0000000000001101100001 _
b0000000000010100011000 `
b1001 a
b0000000001001010101000 d
b0000000001001010110001 e
1f
b0000000001001010011010 h
b0000000001001010010001 i
1j
b0000000000001101100001 l
b0000000000100001111001 m
1n
#220000000000
0!
03
0U
0f
0j
0n
#230000000000
1!
b0000000001001010101000 (
b0000000001001010011010 )
b0000000000001101100001 *
b1100 +
b0000000001001010101000 /
b0000000001001010011010 0
b0000000000001101100001 1
13
b1010 5
b0000000001001010101000 9
b0000000001001010011010 :
b0000000000001101100001 ;
b0000000001001010101000 <
b0000000001001010011010 =
b0000000000001101100001 >
b0000000001001010100100 ?
b0000000001001010011110 @
b0000000000000011010101 A
b0000000000001010001100 B
1U
b1010 X
b1010 Y
b0000000001001010101000 Z
b0000000001001010011010 [
b0000000000001101100001 \
b0000000001001010100100 ]
b0000000001001010011110 ^
b0000000000000011010101 _
b0000000000001010001100 `
b1010 a
b0000000001001010100100 d
b0000000001001010101000 e
1f
b0000000001001010011110 h
b0000000001001010011010 i
1j
b0000000000000011010101 l
b0000000000001101100001 m
1n
#240000000000
0!
03
0U
0f
0j
0n
#250000000000
1!
b0000000001001010100100 (
b0000000001001010011110 )
b0000000000000011010101 *
b1101 +
b0000000001001010100100 /
b0000000001001010011110 0
b0000000000000011010101 1
13
b1011 5
b0000000001001010100100 9
b0000000001001010011110 :
b0000000000000011010101 ;
b0000000001001010100100 <
b0000000001001010011110 =
b0000000000000011010101 >
b0000000001001010100010 ?
b0000000001001010100000 @
b1111111111111110001111 A
b0000000000000101000110 B
1U
b1011 X
b1011 Y
b0000000001001010100100 Z
b0000000001001010011110 [
b0000000000000011010101 \
b0000000001001010100010 ]
b0000000001001010100000 ^
b1111111111111110001111 _
b0000000000000101000110 `
b1011 a
b0000000001001010100010 d
b0000000001001010100100 e
1f
b0000000001001010100000 h
b0000000001001010011110 i
1j
b1111111111111110001111 l
b0000000000000011010101 m
1n
#260000000000
0!
03
0U
0f
0j
0n
#270000000000
1!
b0000000001001010100010 (
b0000000001001010100000 )
b1111111111111110001111 *
b1110 +
b0000000001001010100010 /
b0000000001001010100000 0
b1111111111111110001111 1
13
b1100 5
b0000000001001010100010 9
b0000000001001010100000 :
b1111111111111110001111 ;
b0000000001001010100010 <
b0000000001001010100000 =
b1111111111111110001111 >
b0000000001001010100011 ?
b0000000001001010011111 @
b0000000000000000110010 A
b0000000000000010100011 B
1U
b1100 X
b1100 Y
b0000000001001010100010 Z
b0000000001001010100000 [
b1111111111111110001111 \
b0000000001001010100011 ]
b0000000001001010011111 ^
b0000000000000000110010 _
b0000000000000010100011 `
b1100 a
1c
b0000000001001010100011 d
b0000000001001010100010 e
1f
b0000000001001010011111 h
b0000000001001010100000 i
1j
b0000000000000000110010 l
b1111111111111110001111 m
1n
#280000000000
0!
03
0U
0f
0j
0n
#290000000000
1!
b0000000001001010100011 (
b0000000001001010011111 )
b0000000000000000110010 *
b1111 +
b0000000001001010100011 /
b0000000001001010011111 0
b0000000000000000110010 1
13
b1101 5
b0000000001001010100011 9
b0000000001001010011111 :
b0000000000000000110010 ;
b0000000001001010100011 <
b0000000001001010011111 =
b0000000000000000110010 >
b0000000001001010100011 ?
b0000000001001010011111 @
b1111111111111111100001 A
b0000000000000001010001 B
1U
b1101 X
b1101 Y
b0000000001001010100011 Z
b0000000001001010011111 [
b0000000000000000110010 \
b0000000001001010100011 ]
b0000000001001010011111 ^
b1111111111111111100001 _
b0000000000000001010001 `
b1101 a
0c
b0000000001001010100011 d
b0000000001001010100011 e
1f
b0000000001001010011111 h
b0000000001001010011111 i
1j
b1111111111111111100001 l
b0000000000000000110010 m
1n
#300000000000
0!
03
0U
0f
0j
0n
#310000000000
1!
b1111111111111111100001 *
b10000 +
b1111111111111111100001 1
13
b1110 5
b1111111111111111100001 ;
b1111111111111111100001 >
b1111111111111111100001 A
b0000000000000000000000 B
0C
1U
0V
b1110 X
b1110 Y
b1111111111111111100001 \
b1111111111111111100001 _
b0000000000000000000000 `
b1110 a
1c
1f
1j
b1111111111111111100001 l
b1111111111111111100001 m
1n
#320000000000
0!
03
0U
0f
0j
0n
#330000000000
1!
b10001 +
13
1U
1f
1j
1n
#340000000000
0!
03
0U
0f
0j
0n
#350000000000
1!
b10010 +
13
1U
1f
1j
1n
#360000000000
0!
03
0U
0f
0j
0n
#370000000000
1!
b10011 +
13
1U
1f
1j
1n
#380000000000
0!
03
0U
0f
0j
0n
#390000000000
1!
b10100 +
13
1U
1f
1j
1n
#400000000000
0!
03
0U
0f
0j
0n
#410000000000
1!
b10101 +
13
1U
1f
1j
1n
#420000000000
0!
03
0U
0f
0j
0n
#430000000000
1!
b10110 +
13
1U
1f
1j
1n
#440000000000
0!
03
0U
0f
0j
0n
#450000000000
1!
b0 +
13
1U
1f
1j
1n
#460000000000
0!
03
0U
0f
0j
0n
#470000000000
1!
1"
b0000000000000000000000 %
b0000000001000000000000 &
b0110000000000000000000 '
b1 +
b0000000000000000000000 ,
b0000000001000000000000 -
b0110000000000000000000 .
12
13
b0 5
b0000000000000000000000 6
b1111111111000000000000 7
b1110000000000000000000 8
b0000000001000000000000 9
b0000000000000000000000 :
b0010000000000000000000 ;
b0000000001000000000000 ?
b0000000001000000000000 @
b0010000000000000000000 A
b0000000000000000000000 E
b0000000001000000000000 F
b0110000000000000000000 G
b0000000000000000000000 H
b1111111111000000000000 I
b1110000000000000000000 J
b0000000000000000000000 L
b1111111111000000000000 M
b1110000000000000000000 N
b0000000000000000000000 O
b1111111111000000000000 P
b1110000000000000000000 Q
b0000000000000000000000 R
b0000000001000000000000 S
b0110000000000000000000 T
1U
1W
b0 X
b0000000001000000000000 Z
b0000000000000000000000 [
b0010000000000000000000 \
b0000000001000000000000 ]
b0000000001000000000000 ^
b0010000000000000000000 _
b0 a
0c
b0000000001000000000000 d
1f
1g
b0000000001000000000000 h
1j
1k
b0010000000000000000000 l
1n
1o
#480000000000
0!
03
b0000000000000000000000 9
b1111111111000000000000 :
b1110000000000000000000 ;
b1111111111000000000000 ?
b1111111111000000000000 @
b1110000000000000000000 A
0U
b0000000000000000000000 Z
b1111111111000000000000 [
b1110000000000000000000 \
b1111111111000000000000 ]
b1111111111000000000000 ^
b1110000000000000000000 _
1c
b1111111111000000000000 d
0f
b1111111111000000000000 h
0j
b1110000000000000000000 l
0n
#490000000000
1!
0"
b0000000000000000000000 (
b0000000000000000000000 )
b0000000000000000000000 *
b10 +
b0000000000000000000000 /
b0000000000000000000000 0
b0000000000000000000000 1
02
13
b0000000000000000000000 <
b0000000000000000000000 =
b0000000000000000000000 >
b0000000000000000000000 A
b0010000000000000000000 B
1C
1U
1V
0W
b0 Y
b0000000000000000000000 _
b0010000000000000000000 `
b0000000000000000000000 e
1f
0g
b0000000000000000000000 i
1j
0k
b0000000000000000000000 l
b0000000000000000000000 m
1n
0o
#500000000000
0!
03
0U
0f
0j
0n
#510000000000
1!
b1111111111000000000000 (
b1111111111000000000000 )
b11 +
b1111111111000000000000 /
b1111111111000000000000 0
13
b1 5
b1111111111000000000000 9
b0000000000000000000000 ;
b1111111111000000000000 <
b1111111111000000000000 =
b1111111111100000000000 ?
b1111111110100000000000 @
b1110110100011011111111 A
b0001001011100100000001 B
1U
b1 X
b1 Y
b1111111111000000000000 Z
b0000000000000000000000 \
b1111111111100000000000 ]
b1111111110100000000000 ^
b1110110100011011111111 _
b0001001011100100000001 `
b1 a
0c
b1111111111100000000000 d
b1111111111000000000000 e
1f
b1111111110100000000000 h
b1111111111000000000000 i
1j
b1110110100011011111111 l
1n
#520000000000
0!
03
0U
0f
0j
0n
#530000000000
1!
b1111111111100000000000 (
b1111111110100000000000 )
b1110110100011011111111 *
b100 +
b1111111111100000000000 /
b1111111110100000000000 0
b1110110100011011111111 1
13
b10 5
b1111111111100000000000 9
b1111111110100000000000 :
b1110110100011011111111 ;
b1111111111100000000000 <
b1111111110100000000000 =
b1110110100011011111111 >
b1111111111001000000000 ?
b1111111110101000000000 @
b1111011100010111001101 A
b0000100111111011001110 B
1U
b10 X
b10 Y
b1111111111100000000000 Z
b1111111110100000000000 [
b1110110100011011111111 \
b1111111111001000000000 ]
b1111111110101000000000 ^
b1111011100010111001101 _
b0000100111111011001110 `
b10 a
1c
b1111111111001000000000 d
b1111111111100000000000 e
1f
b1111111110101000000000 h
b1111111110100000000000 i
1j
b1111011100010111001101 l
b1110110100011011111111 m
1n
#540000000000
0!
03
0U
0f
0j
0n
#550000000000
1!
b1111111111001000000000 (
b1111111110101000000000 )
b1111011100010111001101 *
b101 +
b1111111111001000000000 /
b1111111110101000000000 0
b1111011100010111001101 1
13
b11 5
b1111111111001000000000 9
b1111111110101000000000 :
b1111011100010111001101 ;
b1111111111001000000000 <
b1111111110101000000000 =
b1111011100010111001101 >
b1111111110111101000000 ?
b1111111110101111000000 @
b1111110000101000010001 A
b0000010100010001000100 B
1U
b11 X
b11 Y
b1111111111001000000000 Z
b1111111110101000000000 [
b1111011100010111001101 \
b1111111110111101000000 ]
b1111111110101111000000 ^
b1111110000101000010001 _
b0000010100010001000100 `
b11 a
b1111111110111101000000 d
b1111111111001000000000 e
1f
b1111111110101111000000 h
b1111111110101000000000 i
1j
b1111110000101000010001 l
b1111011100010111001101 m
1n
#560000000000
0!
03
0U
0f
0j
0n
#570000000000
1!
b1111111110111101000000 (
b1111111110101111000000 )
b1111110000101000010001 *
b110 +
b1111111110111101000000 /
b1111111110101111000000 0
b1111110000101000010001 1
13
b100 5
b1111111110111101000000 9
b1111111110101111000000 :
b1111110000101000010001 ;
b1111111110111101000000 <
b1111111110101111000000 =
b1111110000101000010001 >
b1111111110110111111100 ?
b1111111110110011001100 @
b1111111010110011010100 A
b0000001010001011000011 B
1U
b100 X
b100 Y
b1111111110111101000000 Z
b1111111110101111000000 [
b1111110000101000010001 \
b1111111110110111111100 ]
b1111111110110011001100 ^
b1111111010110011010100 _
b0000001010001011000011 `
b100 a
b1111111110110111111100 d
b1111111110111101000000 e
1f
b1111111110110011001100 h
b1111111110101111000000 i
1j
b1111111010110011010100 l
b1111110000101000010001 m
1n
#580000000000
0!
03
0U
0f
0j
0n
#590000000000
1!
b1111111110110111111100 (
b1111111110110011001100 )
b1111111010110011010100 *
b111 +
b1111111110110111111100 /
b1111111110110011001100 0
b1111111010110011010100 1
13
b101 5
b1111111110110111111100 9
b1111111110110011001100 :
b1111111010110011010100 ;
b1111111110110111111100 <
b1111111110110011001100 =
b1111111010110011010100 >
b1111111110110101100010 ?
b1111111110110101011101 @
b1111111111111001001010 A
b0000000101000101110110 B
1U
b101 X
b101 Y
b1111111110110111111100 Z
b1111111110110011001100 [
b1111111010110011010100 \
b1111111110110101100010 ]
b1111111110110101011101 ^
b1111111111111001001010 _
b0000000101000101110110 `
b101 a
b1111111110110101100010 d
b1111111110110111111100 e
1f
b1111111110110101011101 h
b1111111110110011001100 i
1j
b1111111111111001001010 l
b1111111010110011010100 m
1n
#600000000000
0!
03
0U
0f
0j
0n
#610000000000
1!
b1111111110110101100010 (
b1111111110110101011101 )
b1111111111111001001010 *
b1000 +
b1111111110110101100010 /
b1111111110110101011101 0
b1111111111111001001010 1
13
b110 5
b1111111110110101100010 9
b1111111110110101011101 :
b1111111111111001001010 ;
b1111111110110101100010 <
b1111111110110101011101 =
b1111111111111001001010 >
b1111111110110100010111 ?
b1111111110110110101000 @
b0000000010011100001000 A
b0000000010100010111110 B
1U
b110 X
b110 Y
b1111111110110101100010 Z
b1111111110110101011101 [
b1111111111111001001010 \
b1111111110110100010111 ]
b1111111110110110101000 ^
b0000000010011100001000 _
b0000000010100010111110 `
b110 a
b1111111110110100010111 d
b1111111110110101100010 e
1f
b1111111110110110101000 h
b1111111110110101011101 i
1j
b0000000010011100001000 l
b1111111111111001001010 m
1n
#620000000000
0!
03
0U
0f
0j
0n
#630000000000
1!
b1111111110110100010111 (
b1111111110110110101000 )
b0000000010011100001000 *
b1001 +
b1111111110110100010111 /
b1111111110110110101000 0
b0000000010011100001000 1
13
b111 5
b1111111110110100010111 9
b1111111110110110101000 :
b0000000010011100001000 ;
b1111111110110100010111 <
b1111111110110110101000 =
b0000000010011100001000 >
b1111111110110100111100 ?
b1111111110110110000010 @
b0000000001001010101001 A
b0000000001010001011111 B
1U
b111 X
b111 Y
b1111111110110100010111 Z
b1111111110110110101000 [
b0000000010011100001000 \
b1111111110110100111100 ]
b1111111110110110000010 ^
b0000000001001010101001 _
b0000000001010001011111 `
b111 a
0c
b1111111110110100111100 d
b1111111110110100010111 e
1f
b1111111110110110000010 h
b1111111110110110101000 i
1j
b0000000001001010101001 l
b0000000010011100001000 m
1n
#640000000000
0!
03
0U
0f
0j
0n
#650000000000
1!
b1111111110110100111100 (
b1111111110110110000010 )
b0000000001001010101001 *
b1010 +
b1111111110110100111100 /
b1111111110110110000010 0
b0000000001001010101001 1
13
b1000 5
b1111111110110100111100 9
b1111111110110110000010 :
b0000000001001010101001 ;
b1111111110110100111100 <
b1111111110110110000010 =
b0000000001001010101001 >
b1111111110110101001111 ?
b1111111110110101101111 @
b0000000000100001111001 A
b0000000000101000110000 B
1U
b1000 X
b1000 Y
b1111111110110100111100 Z
b1111111110110110000010 [
b0000000001001010101001 \
b1111111110110101001111 ]
b1111111110110101101111 ^
b0000000000100001111001 _
b0000000000101000110000 `
b1000 a
b1111111110110101001111 d
b1111111110110100111100 e
1f
b1111111110110101101111 h
b1111111110110110000010 i
1j
b0000000000100001111001 l
b0000000001001010101001 m
1n
#660000000000
0!
03
0U
0f
0j
0n
